{
	"site" : {
		"name" : {
			"kor" : "ศัลยกรรมเกาหลี วีไลน์ เกาหลี ตาสองชั้น เสริมจมูก รีวิวศัลยกรรม - รพ.บาโนบากิ",
			"eng" : "Korean Animal Walfare Association"
		},
		"address" : "서울특별시 성동구 행당로 17길 1-77 (우04714)",
		"number" : "206-82-06985",
		"ceo" : "조희경",
		"person" : "조희경",
		"tel" : "02-2292-6337",
		"fax" : "02-2292-6339",
		"mail" : "admin@animals.or.kr",
		"copyright" :"Copyright &copy; 2016 동물자유연대. All rights reserved.",
		"social" : {
			"Blog" : "http://blog.naver.com/animalkawa",
			"Twiter" : "https://twitter.com/animalkorea",
			"Facebook" : "https://www.facebook.com/animalkorea",
			"Instagram" : "#",
			"Kakao Story" : "#"
		}
	},
	"familySite" : {
		"다름노" : "http://www.savedogs.or.kr/",
		"화장품 동물실험반대" : "http://www.benicetobunnies.org/",
		"하프물범" : "http://www.animals.or.kr/harpseal/",
		"동물보호관리시스템" : "http://www.animal.go.kr/"
	},
	"pages" : {
		"page1" : {
			"title" : {
				"kor" : "단체소개",
				"eng" : "About Us"
			},
			"links" : [
				"../단체소개/인사말.html"
			],
			"children" : [
				{
					"title" : "인사말",
					"links" : [
						"../단체소개/인사말.html"
					]
				},
				{
					"title" : "미션",
					"links" : [
						"../단체소개/미션.html"
					]
				},
				{
					"title" : "비전",
					"links" : [
						"../단체소개/비전.html"
					]
				},
				{
					"title" : "연혁",
					"links" : [
						"../단체소개/연혁01.html"
					]
				},
				{
					"title" : "조직도",
					"links" : [
						"../단체소개/조직도.html"
					]
				}
			]
		},
		"page2" : {
			"title" : {
				"kor" : "주요활동",
				"eng" : "Campalgns"
			},
			"links" : [
				"../주요활동/반려동물(글목록).html"
			],
			"children" : [
				{
					"title" : "반려동물",
					"links" : [
						"../주요활동/반려동물(글목록).html"
					]
				},
				{
					"title" : "농장동물",
					"links" : [
						"../주요활동/농장동물(글목록).html"
					]
				},
				{
					"title" : "동물실험",
					"links" : [
						"../주요활동/동물실험(글목록).html"
					]
				},
				{
					"title" : "전시동물",
					"links" : [
						"../주요활동/전시동물(글목록).html"
					]
				},
				{
					"title" : "길고양이",
					"links" : [
						"../주요활동/길고양이(글목록).html"
					]
				},
				{
					"title" : "사설보호소 나눔",
					"links" : [
						"../주요활동/사설보호소나눔(글목록).html"
					]
				},
				{
					"title" : "그 외 이슈",
					"links" : [
						"../주요활동/그외이슈(글목록).html"
					]
				}
			]
		},
		"page3" : {
			"title" : {
				"kor" : "교육안내",
				"eng" : "Education"
			},
			"links" : [
				"../교육안내/교육안내(글목록).html"
			],
			"children" : [
				{
					"title":"교육 안내",
					"links":[
						"../교육안내/교육안내(글목록).html"
					]
				},
				{
					"title":"교육 현장",
					"links":[
						"../교육안내/교육현장.html"
					]
				}
			]
		},
		"page4" : {
			"title" : {
				"kor" : "자료실",
				"eng" : "Resources"
			},
			"links" : [
				"../자료실/법령(글목록).html"
			],
			"children" : [
				{
					"title":"법령",
					"links":[
						"../자료실/법령(글목록).html"
					]
				},
				{
					"title":"보고서·출판물",
					"links":[
						"../자료실/보고서출판물(글목록).html"
					]
				},
				{
					"title":"성명서·보도자료",
					"links":[
						"../자료실/성명서보도자료(글목록).html"
					]
				},
				{
					"title":"매거진",
					"links":[
						"../자료실/매거진.html"
					]
				},
				{
					"title":"동영상",
					"links":[
						"../자료실/동영상(글목록).html"
					]
				},
				{
					"title":"카툰",
					"links":[
						"../자료실/카툰(글목록).html"
					]
				}
			]
		},
		"page5" : {
			"title" : {
				"kor" : "후원안내",
				"eng" : "Donate"
			},
			"links" : [
				"../후원안내/후원안내.html"
			],
			"children" : [
				{
					"title":"후원안내",
					"links":[
						"../후원안내/후원안내.html"
					]
				},
				{
					"title":"살림공개",
					"links":[
						"../후원안내/살림공개(글목록).html"
					]
				},
				{
					"title":"후원Q&A",
					"links":[
						"../후원안내/후원QNA(글목록).html"
					]
				},
				{
					"title":"후원쇼핑내역",
					"links":[
						"../후원안내/후원쇼핑내역.html"
					]
				},
				{
					"title":"이벤트 후원",
					"links":[
						"../후원안내/이벤트후원(목록).html"
					]
				},
				{
					"title":"사랑곳간",
					"links":[
						"../후원안내/사랑곳간(글목록).html"
					]
				},
				{
					"title":"후원쇼핑FAQ",
					"links":[
						"../후원안내/후원쇼핑FAQ(글목록).html"
					]
				},
				{
					"title":"후원업체",
					"links":[
						"../후원안내/후원업체.html"
					]
				}
			]
		},
		"page6" : {
			"title" : {
				"kor" : "참여게시판",
				"eng" : "Board"
			},
			"links" : [
				"../참여게시판/공지사항(글목록).html"
			],
			"children" : [
				{
					"title":"공지사항",
					"links":[
						"../참여게시판/공지사항(글목록).html"
					]
				},
				{
					"title":"뉴스레터",
					"links":[
						"../참여게시판/뉴스레터(글목록).html"
					]
				},
				{
					"title":"학대제보",
					"links":[
						"../참여게시판/학대제보(글목록).html"
					]
				},
				{
					"title":"유기동물 발견시",
					"links":[
						"../참여게시판/유기동물발견시.html"
					]
				},
				{
					"title":"정회원방",
					"links":[
						"../참여게시판/정회원방(글목록).html"
					]
				},
				{
					"title":"부산지부",
					"links":[
						"../참여게시판/부산지부(글목록).html"
					]
				},
				{
					"title":"활동소식",
					"links":[
						"../참여게시판/활동소식(글목록).html"
					]
				}
			]
		},
		"page7" : {
			"title" : {
				"kor" : "반려동물복지센터",
				"eng" : "Adoption Center"
			},
			"links" : [
				"../반려동물복지센터/센터소개.html"
			],
			"children" : [
				{
					"title":"센터소개",
					"links":[
						"../반려동물복지센터/센터소개.html"
					]
				},
				{
					"title":"센터에세이",
					"links":[
						"../반려동물복지센터/센터에세이(글목록).html"
					]
				},
				{
					"title":"자원봉사신청",
					"links":[
						"../반려동물복지센터/자원봉사신청.html"
					]
				},
				{
					"title":"1:1결연",
					"links":[
						"../반려동물복지센터/1대1결연(글목록).html"
					]
				},
				{
					"title":"입양후기",
					"links":[
						"../반려동물복지센터/입양후기(글목록).html"
					]
				},
				{
					"title":"입양신청",
					"links":[
						"../반려동물복지센터/입양신청(글목록).html"
					]
				}
			]
		}
	}
}
